exploration.R
…
positive <- get_sentiments(lexicon = "bing") %>% 
  filter(sentiment == "positive")

# positive sentiment analysis for Arthur Conan Doyle
top_words %>% 
  filter(label == 1) %>% 
  semi_join(positive, by = c("w_tokens" = "word"))

## # A tibble: 400 x 3
## # Groups:   w_tokens [400]
##    w_tokens label  freq
##    <chr>    <fct> <int>
##  1 love     1        75
##  2 ready    1        25
##  3 loved    1        20
##  4 fortune  1        16
##  5 happy    1        16
##  6 pretty   1        15
##  7 worth    1        14
##  8 glad     1        13
##  9 perfect  1        12
## 10 fair     1        11
## #  with 390 more rows

# Positive sentiment analysis for charles darwin
top_words %>% 
  filter(label == 2) %>% 
  semi_join(positive, by = c("w_tokens" = "word"))

## # A tibble: 292 x 3
## # Groups:   w_tokens [292]
##    w_tokens label  freq
##    <chr>    <fct> <int>
##  1 won      2        15
##  2 holy     2        14
##  3 noble    2        11
##  4 ready    2        10
##  5 fine     2         9
##  6 led      2         8
##  7 praise   2         8
##  8 gold     2         7
##  9 happy    2         7
## 10 nobly    2         7
## #  with 282 more rows
…
ngram_2(sent_df, shingles, text, shingle1, stop_words, shingle2, num = 2, label)

## # A tibble: 4,618 x 3
## # Groups:   label [3]
##    label shingles             freq
##    <fct> <chr>               <int>
##  1 2     ic chronicle           31
##  2 1     marriage bond          13
##  3 1     sugar princess          9
##  4 3     mary jane               8
##  5 3     teaching literature     8
##  6 2     noble purpose           7
##  7 2     nobly won               7
##  8 1     thousand dollars        6
##  9 1     hundred dollars         4
## 10 1     respectful distance     4
## #  with 4,608 more rows
…
ngram_3(sent_df, shingles, text, shingle1, stop_words, shingle2, 
        shingle3, shingle4, num = 3, label)

## Warning: Expected 4 pieces. Missing pieces filled with `NA` in 99725 rows [1, 2,
## 3, 4, 5, 6, 7, 8, 9, 10, 11, 12, 13, 14, 15, 16, 17, 18, 19, 20, ...].

## # A tibble: 774 x 3
## # Groups:   label [3]
##    label shingles                          freq
##    <fct> <chr>                            <int>
##  1 1     hundred thousand dollars             2
##  2 2     till bed time                        2
##  3 2     tongue till bed                      2
##  4 1     absent minded employer               1
##  5 1     added ten dollars                    1
##  6 1     aim chapter xxi                      1
##  7 1     altered relationship practically     1
##  8 1     american news company                1
##  9 1     angel ye ll                          1
## 10 1     announced humble love                1
## #  with 764 more rows

# Remeber from our previous sentiment anlysis, the word "mother" seem to have 
# huge importance in positive and negative sentiments 
# lets see what that is all about in a bigram settings 

bi_sep %>%
  filter(shingle2 == "mother") %>%
  count(shingle1, shingle2, sort = TRUE)

## # A tibble: 32 x 3
##    shingle1 shingle2     n
##    <chr>    <chr>    <int>
##  1 her      mother      27
##  2 my       mother      15
##  3 his      mother      10
##  4 the      mother      10
##  5 your     mother       5
##  6 a        mother       4
##  7 holy     mother       4
##  8 its      mother       3
##  9 loved    mother       3
## 10 said     mother       3
## #  with 22 more rows

s_girl <- bi_sep %>%
  filter(shingle2 == "girl") %>%
  inner_join(nrc, by = c("shingle1" = "word")) %>%
  count(shingle1, shingle2, sentiment, sort = TRUE)

s_girl

## # A tibble: 38 x 4
##    shingle1 shingle2 sentiment        n
##    <chr>    <chr>    <chr>        <int>
##  1 pretty   girl     anticipation     4
##  2 pretty   girl     joy              4
##  3 pretty   girl     positive         4
##  4 pretty   girl     trust            4
##  5 young    girl     anticipation     3
##  6 young    girl     joy              3
##  7 young    girl     positive         3
##  8 young    girl     surprise         3
##  9 school   girl     trust            2
## 10 dear     girl     positive         1
## #  with 28 more rows
…
